<svg width="13" height="10" viewBox="0 0 13 10" fill="none" xmlns="http://www.w3.org/2000/svg">
<path fill-rule="evenodd" clip-rule="evenodd" d="M5.54146 9.51701C4.87324 10.161 3.79144 10.161 3.12492 9.51701L0.499885 6.9888C-0.166628 6.34481 -0.166628 5.30223 0.499885 4.65824C1.16811 4.01589 2.24991 4.01589 2.91642 4.65824L4.33319 6.02364L10.0823 0.482994C10.7488 -0.160998 11.8306 -0.160998 12.4988 0.482994C13.1671 1.12534 13.1671 2.16792 12.4988 2.81191L5.54146 9.51701Z" fill="#005E91"/>
</svg>
