<svg width="28" height="28" viewBox="0 0 28 28" fill="none" xmlns="http://www.w3.org/2000/svg">
<path d="M11.0123 17.4453H16.9878L17.2401 15.8047H10.76L11.0123 17.4453Z" fill="#0B94DC"/>
<path d="M14 10.2144L11.9022 12.6118L10.2092 12.225L10.5074 14.164H17.4925L17.7907 12.225L16.0977 12.6118L14 10.2144Z" fill="#0B94DC"/>
<path d="M14 5.79688C9.47675 5.79688 5.79688 9.47675 5.79688 14C5.79688 18.5233 9.47675 22.2031 14 22.2031C18.5233 22.2031 22.2031 18.5233 22.2031 14C22.2031 9.47675 18.5233 5.79688 14 5.79688ZM18.3951 19.0859H9.60492L8.22043 10.0875L11.3126 10.7944L14 7.72311L16.6874 10.7944L19.7796 10.0875L18.3951 19.0859Z" fill="#0B94DC"/>
<path d="M28 14C28 13.0498 27.6661 12.1291 27.0697 11.4002C27.3418 10.4987 27.2978 9.52032 26.9342 8.64233C26.5706 7.76456 25.9099 7.04166 25.08 6.59647C24.9864 5.65952 24.5714 4.77234 23.8995 4.10049C23.2274 3.42865 22.3405 3.01358 21.4035 2.92001C20.9583 2.09009 20.2354 1.42935 19.3577 1.06555C18.4797 0.702179 17.5013 0.658173 16.5998 0.930328C15.8709 0.333893 14.9502 0 14 0C13.0498 0 12.1291 0.333893 11.4002 0.930328C10.4987 0.658173 9.52032 0.702179 8.64233 1.06577C7.76456 1.42935 7.04166 2.09009 6.59647 2.92001C5.65952 3.01358 4.77234 3.42865 4.10049 4.10049C3.42865 4.77234 3.01358 5.65952 2.92001 6.59668C2.09009 7.04166 1.42935 7.76477 1.06577 8.64255C0.702179 9.52032 0.658173 10.4987 0.930328 11.4004C0.333893 12.1291 0 13.0498 0 14C0 14.9502 0.333893 15.8709 0.930328 16.5998C0.658173 17.5013 0.702179 18.4797 1.06577 19.3577C1.42935 20.2354 2.09009 20.9583 2.92001 21.4035C3.01358 22.3405 3.42865 23.2277 4.10049 23.8995C4.77234 24.5714 5.65952 24.9864 6.59647 25.08C7.04166 25.9099 7.76456 26.5706 8.64233 26.9344C9.52032 27.2978 10.4987 27.3418 11.4002 27.0699C12.1291 27.6661 13.0498 28 14 28C14.9502 28 15.8709 27.6661 16.5998 27.0697C17.5013 27.3418 18.4797 27.2978 19.3577 26.9342C20.2354 26.5706 20.9583 25.9099 21.4035 25.08C22.3405 24.9864 23.2277 24.5714 23.8995 23.8995C24.5714 23.2277 24.9864 22.3405 25.08 21.4033C25.9099 20.9583 26.5706 20.2352 26.9342 19.3575C27.2978 18.4797 27.3418 17.5013 27.0697 16.5996C27.6661 15.8709 28 14.9502 28 14ZM14 23.8438C8.57205 23.8438 4.15625 19.4279 4.15625 14C4.15625 8.57205 8.57205 4.15625 14 4.15625C19.4279 4.15625 23.8438 8.57205 23.8438 14C23.8438 19.4279 19.4279 23.8438 14 23.8438Z" fill="#0B94DC"/>
</svg>
