<svg width="68" height="68" viewBox="0 0 68 68" fill="none" xmlns="http://www.w3.org/2000/svg">
<path d="M52.1932 50.2435L41.293 45.7842C40.0892 45.2922 39.3125 44.1341 39.3125 42.8336V42.0708C42.5818 39.8119 45.0787 36.6244 46.4939 32.9375H46.75C49.6793 32.9375 52.0625 30.5543 52.0625 27.625C52.0625 26.962 51.9254 26.333 51.7023 25.7465L52.1549 25.3088C53.1569 24.3642 53.7954 23.1402 53.9484 22.831C55.2989 20.6954 55.6166 18.1146 54.8186 15.7367C54.0855 13.5469 52.4822 11.7598 50.3721 10.7504C50.0289 8.48831 48.7709 6.46 46.8552 5.11169C44.9395 3.76231 42.5627 3.23 40.2464 3.62419C38.6059 1.989 36.3641 1.0625 34 1.0625C31.6359 1.0625 29.3941 1.989 27.7525 3.62419C25.4384 3.23425 23.0605 3.76337 21.1448 5.11169C19.2281 6.46 17.9711 8.48831 17.6269 10.7504C15.5178 11.7598 13.9145 13.5479 13.1803 15.7356C12.3824 18.1135 12.7011 20.6954 14.0505 22.831C14.2003 23.1349 14.8176 24.3196 15.7877 25.2556L16.3253 25.6519C16.0809 26.2639 15.9375 26.9269 15.9375 27.625C15.9375 30.5543 18.3207 32.9375 21.25 32.9375H21.5061C22.9213 36.6254 25.4182 39.8119 28.6875 42.0708V42.8336C28.6875 44.1341 27.9108 45.2912 26.707 45.7831L15.8068 50.2424C9.43181 52.8509 5.3125 58.9879 5.3125 65.875V66.9375H62.6875V65.875C62.6875 58.9879 58.5682 52.8509 52.1932 50.2435ZM43.4711 53.7243L39.1521 56.9638L42.0144 48.3756L42.619 48.6232L43.4711 53.7243ZM25.3799 48.6232L25.9845 48.3756L28.8469 56.9638L24.5278 53.7243L25.3799 48.6232ZM28.9563 57.2921L31.4638 64.8125H31.2524L26.8674 60.4276L28.9563 57.2921ZM27.9437 47.5363C28.1807 47.413 28.4059 47.2749 28.6184 47.1208L34 52.5024L39.3816 47.1208C39.5941 47.2749 39.8183 47.413 40.0563 47.5363L34.2975 64.8125H33.7025L27.9437 47.5363ZM39.0437 57.2921L41.1326 60.4276L36.7476 64.8125H36.5362L39.0437 57.2921ZM45.4824 28.5281C45.4059 29.0286 45.305 29.5322 45.1732 30.0634C44.7674 30.5416 44.1894 30.8125 43.5625 30.8125H39.1574C38.3467 30.8125 37.6189 30.362 37.2566 29.6384L36.7816 28.6875H31.2184L30.7434 29.6384C30.3811 30.362 29.6523 30.8125 28.8426 30.8125H24.4375C23.8106 30.8125 23.2326 30.5416 22.8267 30.0634C22.695 29.5322 22.5941 29.0275 22.5176 28.5281H22.5154C22.3837 27.659 22.3125 26.7718 22.3125 25.8729V23.375H45.6875V25.8729C45.6875 26.7729 45.6163 27.659 45.4835 28.5281H45.4824ZM45.6875 21.25H38.6899L41.6022 18.3377L45.6875 20.7889V21.25ZM22.3125 21.25V20.7889L26.3978 18.3366L29.3101 21.25H22.3125ZM30.1038 21.25L34 18.3281L37.8962 21.25H30.1038ZM47.1899 30.7679C47.2526 30.5235 47.3057 30.2749 47.3588 30.0273C47.3981 29.8456 47.4342 29.665 47.4672 29.4854C47.6861 28.3082 47.8125 27.1033 47.8125 25.8729V24.6341C49.0461 25.0739 49.9375 26.2427 49.9375 27.6261C49.9375 29.2326 48.7379 30.5511 47.1899 30.7679ZM17.2146 23.6778C16.4379 22.9043 15.9503 21.8748 15.946 21.8662L15.8759 21.7377C14.8463 20.1376 14.5988 18.1964 15.1969 16.4114C15.7973 14.6179 17.1849 13.1803 19.0028 12.4674L19.6265 12.2241L19.6743 11.5558C19.8114 9.67406 20.7931 7.95813 22.3688 6.84888C23.9551 5.73219 25.9643 5.35394 27.8747 5.81612L28.5037 5.967L28.9266 5.47931C30.1888 4.02262 32.0376 3.1875 34 3.1875C35.9624 3.1875 37.8112 4.02262 39.0734 5.47931L39.4963 5.967L40.1253 5.81612C42.0346 5.35287 44.0438 5.73219 45.6323 6.84888C47.2069 7.95813 48.1886 9.673 48.3257 11.5558L48.3735 12.2241L48.9972 12.4674C50.8151 13.1803 52.2027 14.6179 52.8031 16.4124C53.4012 18.1964 53.1537 20.1376 52.1241 21.7377L52.054 21.8662C52.0487 21.8769 51.5217 22.9872 50.6876 23.7734L50.541 23.9147C49.8121 23.1699 48.8708 22.6355 47.8114 22.4198V19.5861L41.2718 15.6634L38.1501 18.785L34 15.6719L29.8499 18.785L26.7283 15.6634L20.1875 19.5861V22.4198C19.1452 22.6323 18.2134 23.1508 17.4887 23.8776L17.2146 23.6778ZM18.0625 27.625C18.0625 26.2416 18.9539 25.0729 20.1875 24.633V25.8719C20.1875 27.1012 20.3139 28.3071 20.5317 29.4833C20.5657 29.6629 20.6008 29.8446 20.6412 30.0273C20.6943 30.2749 20.7474 30.5224 20.8101 30.7668C19.2621 30.5511 18.0625 29.2326 18.0625 27.625ZM23.7745 32.878C23.9923 32.9131 24.2133 32.9375 24.4375 32.9375H28.8426C30.3779 32.9375 31.7666 32.1289 32.5242 30.8125H35.4769C36.2344 32.1289 37.6231 32.9375 39.1584 32.9375H43.5625C43.7867 32.9375 44.0077 32.9131 44.2255 32.878C42.3247 37.2555 38.6878 40.7724 34 42.4384C29.3123 40.7724 25.6742 37.2555 23.7745 32.878ZM33.6642 44.5698L34 44.6824L34.3358 44.5708C35.3419 44.2351 36.3067 43.8249 37.2247 43.3468C37.3012 44.1416 37.5498 44.8896 37.9451 45.5526L34 49.4976L30.0539 45.5515C30.4491 44.8885 30.6978 44.1405 30.7743 43.3458C31.6923 43.8239 32.6581 44.2351 33.6642 44.5698ZM16.6122 52.2113L23.0679 49.5699L22.2211 54.6507L26.1832 57.6226L24.1315 60.6985L28.2476 64.8125H18.0625V58.4375H15.9375V64.8125H7.47469C7.871 59.2291 11.3688 54.3554 16.6122 52.2113ZM52.0625 64.8125V58.4375H49.9375V64.8125H39.7524L43.8674 60.6974L41.8158 57.6215L45.7778 54.6497L44.931 49.5688L51.3867 52.2102C56.6302 54.3554 60.1279 59.228 60.5243 64.8114H52.0625V64.8125Z" fill="#0B94DC"/>
<path d="M38.25 34H36.125C36.125 35.1719 35.1719 36.125 34 36.125C32.8281 36.125 31.875 35.1719 31.875 34H29.75C29.75 36.3439 31.6561 38.25 34 38.25C36.3439 38.25 38.25 36.3439 38.25 34Z" fill="#0B94DC"/>
</svg>
